EESchema Schematic File Version 4
EELAYER 30 0
EELAYER END
$Descr A4 11693 8268
encoding utf-8
Sheet 1 1
Title ""
Date ""
Rev ""
Comp ""
Comment1 ""
Comment2 ""
Comment3 ""
Comment4 ""
$EndDescr
$Comp
L Device:L Xd2_baixa
U 1 1 5E784EDA
P 4900 3450
F 0 "Xd2_baixa" V 4719 3450 50  0000 C CNN
F 1 "0,2663 Ω" V 4810 3450 50  0000 C CNN
F 2 "" H 4900 3450 50  0001 C CNN
F 3 "~" H 4900 3450 50  0001 C CNN
	1    4900 3450
	0    -1   1    0   
$EndComp
$Comp
L Device:Transformer_1P_1S T1
U 1 1 5E79C6BA
P 4450 6900
F 0 "T1" H 4450 7189 50  0000 C CNN
F 1 "Transformer_1P_1S" H 4450 7190 50  0001 C CNN
F 2 "" H 4450 6900 50  0001 C CNN
F 3 "~" H 4450 6900 50  0001 C CNN
	1    4450 6900
	1    0    0    -1  
$EndComp
$Comp
L Device:R r2'
U 1 1 5E79C6C0
P 3400 6700
F 0 "r2'" V 3193 6700 50  0000 C CNN
F 1 "0,0868" V 3284 6700 50  0000 C CNN
F 2 "" V 3330 6700 50  0001 C CNN
F 3 "~" H 3400 6700 50  0001 C CNN
	1    3400 6700
	0    1    1    0   
$EndComp
$Comp
L Device:L x1
U 1 1 5E79C6C6
P 2600 6700
F 0 "x1" V 2419 6700 50  0000 C CNN
F 1 "0,1894" V 2510 6700 50  0000 C CNN
F 2 "" H 2600 6700 50  0001 C CNN
F 3 "~" H 2600 6700 50  0001 C CNN
	1    2600 6700
	0    1    1    0   
$EndComp
$Comp
L Device:L x2'
U 1 1 5E79C6CC
P 3800 6700
F 0 "x2'" V 3619 6700 50  0000 C CNN
F 1 "0,1894" V 3710 6700 50  0000 C CNN
F 2 "" H 3800 6700 50  0001 C CNN
F 3 "~" H 3800 6700 50  0001 C CNN
	1    3800 6700
	0    1    1    0   
$EndComp
$Comp
L Device:L xm'
U 1 1 5E79C6D2
P 3150 6900
F 0 "xm'" H 3203 6946 50  0000 L CNN
F 1 "263,8752" H 3203 6855 50  0000 L CNN
F 2 "" H 3150 6900 50  0001 C CNN
F 3 "~" H 3150 6900 50  0001 C CNN
	1    3150 6900
	1    0    0    -1  
$EndComp
$Comp
L Device:R r1
U 1 1 5E79C6D8
P 2200 6700
F 0 "r1" V 1993 6700 50  0000 C CNN
F 1 "0,0868" V 2084 6700 50  0000 C CNN
F 2 "" V 2130 6700 50  0001 C CNN
F 3 "~" H 2200 6700 50  0001 C CNN
	1    2200 6700
	0    1    1    0   
$EndComp
Wire Wire Line
	2350 6700 2450 6700
Wire Wire Line
	2750 6700 3000 6700
Wire Wire Line
	2850 6750 3000 6750
Wire Wire Line
	3000 6750 3000 6700
Connection ~ 3000 6750
Wire Wire Line
	3000 6750 3150 6750
Connection ~ 3000 6700
Wire Wire Line
	3000 6700 3250 6700
Wire Wire Line
	3550 6700 3650 6700
Wire Wire Line
	3950 6700 4050 6700
Wire Wire Line
	4050 7100 3000 7100
Wire Wire Line
	2050 6700 1950 6700
Wire Wire Line
	4850 6700 4950 6700
Wire Wire Line
	4850 7100 4950 7100
Wire Wire Line
	3150 7050 3000 7050
Wire Wire Line
	3000 7100 3000 7050
Connection ~ 3000 7100
Wire Wire Line
	3000 7100 1950 7100
Connection ~ 3000 7050
Wire Wire Line
	3000 7050 2850 7050
$Comp
L Device:R rp'
U 1 1 5E79C6F2
P 2850 6900
F 0 "rp'" H 2700 6950 50  0000 L CNN
F 1 "781,25" H 2500 6850 50  0000 L CNN
F 2 "" V 2780 6900 50  0001 C CNN
F 3 "~" H 2850 6900 50  0001 C CNN
	1    2850 6900
	1    0    0    -1  
$EndComp
Text GLabel 1950 6700 0    50   Input ~ 0
V1+
Text GLabel 1950 7100 0    50   Input ~ 0
V1-
Text GLabel 4950 6700 2    50   Input ~ 0
V2+
Text GLabel 4950 7100 2    50   Input ~ 0
V2-
Text Notes 1500 3100 0    50   ~ 0
Circuito Equivalente Completo Refletido (BT)
Text Notes 1750 6400 0    50   ~ 0
Circuito Equivalente Completo Refletido (BT)
Wire Notes Line
	1700 6300 1700 7200
Wire Notes Line
	1700 7200 5200 7200
Wire Notes Line
	5200 7200 5200 6300
Wire Notes Line
	5200 6300 1700 6300
$Comp
L Device:Transformer_1P_1S T1
U 1 1 5E7A8D60
P 3100 5950
F 0 "T1" H 3100 6239 50  0000 C CNN
F 1 "Transformer_1P_1S" H 3100 6240 50  0001 C CNN
F 2 "" H 3100 5950 50  0001 C CNN
F 3 "~" H 3100 5950 50  0001 C CNN
	1    3100 5950
	-1   0    0    -1  
$EndComp
$Comp
L Device:L x2
U 1 1 5E7A8D6C
P 6050 5750
F 0 "x2" V 5869 5750 50  0000 C CNN
F 1 "0,7575 Ω" V 5960 5750 50  0000 C CNN
F 2 "" H 6050 5750 50  0001 C CNN
F 3 "~" H 6050 5750 50  0001 C CNN
	1    6050 5750
	0    -1   1    0   
$EndComp
$Comp
L Device:L xm
U 1 1 5E7A8D78
P 4050 5950
F 0 "xm" H 4102 5996 50  0000 L CNN
F 1 "1055,5 Ω" H 4102 5905 50  0000 L CNN
F 2 "" H 4050 5950 50  0001 C CNN
F 3 "~" H 4050 5950 50  0001 C CNN
	1    4050 5950
	1    0    0    -1  
$EndComp
$Comp
L Device:R r2
U 1 1 5E7A8D7E
P 5550 5750
F 0 "r2" V 5343 5750 50  0000 C CNN
F 1 "0,3472 Ω" V 5434 5750 50  0000 C CNN
F 2 "" V 5480 5750 50  0001 C CNN
F 3 "~" H 5550 5750 50  0001 C CNN
	1    5550 5750
	0    -1   1    0   
$EndComp
Wire Wire Line
	5900 5750 5700 5750
Wire Wire Line
	3750 5800 3900 5800
Wire Wire Line
	3900 5800 3900 5750
Connection ~ 3900 5800
Wire Wire Line
	3900 5800 4050 5800
Wire Wire Line
	4050 6100 3900 6100
Wire Wire Line
	3900 6150 3900 6100
Connection ~ 3900 6100
Wire Wire Line
	3900 6100 3750 6100
$Comp
L Device:R rp
U 1 1 5E7A8D98
P 3750 5950
F 0 "rp" H 3600 6000 50  0000 L CNN
F 1 "3125 Ω" H 3400 5900 50  0000 L CNN
F 2 "" V 3680 5950 50  0001 C CNN
F 3 "~" H 3750 5950 50  0001 C CNN
	1    3750 5950
	1    0    0    -1  
$EndComp
Text Notes 1750 5450 0    50   ~ 0
Circuito Equivalente a Fluxo Constante Refletido (AT)
Wire Wire Line
	5400 5750 5200 5750
Wire Wire Line
	5300 3450 5050 3450
Wire Wire Line
	6200 5750 6300 5750
Wire Wire Line
	3500 6150 3900 6150
Connection ~ 3900 6150
$Comp
L Device:R Z2
U 1 1 5E7D1093
P 6300 5950
F 0 "Z2" H 6370 5996 50  0000 L CNN
F 1 "41,6667 Ω" H 6370 5905 50  0000 L CNN
F 2 "" V 6230 5950 50  0001 C CNN
F 3 "~" H 6300 5950 50  0001 C CNN
	1    6300 5950
	1    0    0    -1  
$EndComp
Wire Wire Line
	3900 5750 4400 5750
Connection ~ 3900 5750
Wire Wire Line
	3500 5750 3900 5750
Wire Wire Line
	6300 5750 6300 5800
Wire Wire Line
	6300 6100 6300 6150
Wire Wire Line
	3900 6150 6300 6150
$Comp
L Simulation_SPICE:VSIN V1
U 1 1 5E7F24BB
P 2200 5950
F 0 "V1" H 1950 5950 50  0000 L CNN
F 1 "254,3325 Fase 2,0484° (V)" H 1800 6300 50  0000 L CNN
F 2 "" H 2200 5950 50  0001 C CNN
F 3 "~" H 2200 5950 50  0001 C CNN
F 4 "Y" H 2200 5950 50  0001 L CNN "Spice_Netlist_Enabled"
F 5 "V" H 2200 5950 50  0001 L CNN "Spice_Primitive"
F 6 "sin(0 1 1k)" H 2330 5859 50  0001 L CNN "Spice_Model"
	1    2200 5950
	1    0    0    -1  
$EndComp
Wire Wire Line
	2200 6150 2700 6150
Wire Notes Line
	1700 5300 1700 6200
Wire Notes Line
	1700 6200 6850 6200
Wire Notes Line
	6850 6200 6850 5300
Wire Notes Line
	6850 5300 1700 5300
Wire Wire Line
	4400 3450 4750 3450
$Comp
L Device:R r2_baixa
U 1 1 5E785827
P 4250 3450
F 0 "r2_baixa" V 4043 3450 50  0000 C CNN
F 1 "0,07 Ω" V 4134 3450 50  0000 C CNN
F 2 "" V 4180 3450 50  0001 C CNN
F 3 "~" H 4250 3450 50  0001 C CNN
	1    4250 3450
	0    -1   1    0   
$EndComp
Wire Wire Line
	3100 3450 2750 3450
$Comp
L Device:L Xd1_baixa
U 1 1 5E78548C
P 3250 3450
F 0 "Xd1_baixa" V 3069 3450 50  0000 C CNN
F 1 "0,2663 Ω" V 3160 3450 50  0000 C CNN
F 2 "" H 3250 3450 50  0001 C CNN
F 3 "~" H 3250 3450 50  0001 C CNN
	1    3250 3450
	0    -1   1    0   
$EndComp
$Comp
L Device:R r1_baixa
U 1 1 5E784CEA
P 2600 3450
F 0 "r1_baixa" V 2393 3450 50  0000 C CNN
F 1 "0,07 Ω" V 2484 3450 50  0000 C CNN
F 2 "" V 2530 3450 50  0001 C CNN
F 3 "~" H 2600 3450 50  0001 C CNN
	1    2600 3450
	0    -1   1    0   
$EndComp
Wire Notes Line
	1400 3000 5700 3000
$Comp
L Device:L Xd1_alta
U 1 1 5E7A7BF1
P 4900 1850
F 0 "Xd1_alta" V 4719 1850 50  0000 C CNN
F 1 "1,065 Ω" V 4810 1850 50  0000 C CNN
F 2 "" H 4900 1850 50  0001 C CNN
F 3 "~" H 4900 1850 50  0001 C CNN
	1    4900 1850
	0    -1   1    0   
$EndComp
Text Notes 1500 1500 0    50   ~ 0
Circuito Equivalente Completo Refletido (AT)
$Comp
L Device:R Zcarga
U 1 1 5E7A7C02
P 2150 2200
F 0 "Zcarga" H 2220 2246 50  0000 L CNN
F 1 "18.515 + j18.889 Ω" H 2200 2150 50  0000 L CNN
F 2 "" V 2080 2200 50  0001 C CNN
F 3 "~" H 2150 2200 50  0001 C CNN
	1    2150 2200
	1    0    0    -1  
$EndComp
Wire Notes Line
	1400 1400 1400 2750
Wire Notes Line
	5700 2750 5700 1400
Wire Wire Line
	4400 1850 4750 1850
$Comp
L Device:R r1_alta
U 1 1 5E7A7C13
P 4250 1850
F 0 "r1_alta" V 4043 1850 50  0000 C CNN
F 1 "0,28 Ω" V 4134 1850 50  0000 C CNN
F 2 "" V 4180 1850 50  0001 C CNN
F 3 "~" H 4250 1850 50  0001 C CNN
	1    4250 1850
	0    -1   1    0   
$EndComp
Wire Wire Line
	3100 1850 2750 1850
$Comp
L Device:L Xd2_alta
U 1 1 5E7A7C29
P 3250 1850
F 0 "Xd2_alta" V 3050 1850 50  0000 C CNN
F 1 "1,065 Ω" V 3150 1850 50  0000 C CNN
F 2 "" H 3250 1850 50  0001 C CNN
F 3 "~" H 3250 1850 50  0001 C CNN
	1    3250 1850
	0    -1   1    0   
$EndComp
$Comp
L Device:R r2_alta
U 1 1 5E7A7C2F
P 2600 1850
F 0 "r2_alta" V 2393 1850 50  0000 C CNN
F 1 "0,28 Ω" V 2484 1850 50  0000 C CNN
F 2 "" V 2530 1850 50  0001 C CNN
F 3 "~" H 2600 1850 50  0001 C CNN
	1    2600 1850
	0    -1   1    0   
$EndComp
Wire Notes Line
	1400 1400 5700 1400
Wire Notes Line
	1400 2750 5700 2750
Wire Wire Line
	2150 2550 2150 2350
Wire Wire Line
	2150 2050 2150 1850
Wire Wire Line
	2150 1850 2450 1850
$Comp
L Simulation_SPICE:VSIN Vin*a
U 1 1 5E7B5D64
P 5300 2200
F 0 "Vin*a" H 4850 2200 50  0000 L CNN
F 1 "247,3066 /2,207º V" H 4450 2300 50  0000 L CNN
F 2 "" H 5300 2200 50  0001 C CNN
F 3 "~" H 5300 2200 50  0001 C CNN
F 4 "Y" H 5300 2200 50  0001 L CNN "Spice_Netlist_Enabled"
F 5 "V" H 5300 2200 50  0001 L CNN "Spice_Primitive"
F 6 "sin(0 1 1k)" H 5430 2109 50  0001 L CNN "Spice_Model"
	1    5300 2200
	1    0    0    -1  
$EndComp
$Comp
L Device:L Xm_alta
U 1 1 5E7A7C19
P 3900 2200
F 0 "Xm_alta" H 3550 2250 50  0000 L CNN
F 1 "564 Ω" H 3600 2150 50  0000 L CNN
F 2 "" H 3900 2200 50  0001 C CNN
F 3 "~" H 3900 2200 50  0001 C CNN
	1    3900 2200
	-1   0    0    -1  
$EndComp
$Comp
L Device:R rp_alta
U 1 1 5E7A7C20
P 3600 2200
F 0 "rp_alta" H 3700 2250 50  0000 L CNN
F 1 "1763 Ω" H 3700 2150 50  0000 L CNN
F 2 "" V 3530 2200 50  0001 C CNN
F 3 "~" H 3600 2200 50  0001 C CNN
	1    3600 2200
	-1   0    0    -1  
$EndComp
Wire Wire Line
	3400 1850 3750 1850
Wire Wire Line
	3600 2050 3600 2000
Wire Wire Line
	3600 2000 3750 2000
Wire Wire Line
	3900 2000 3900 2050
Wire Wire Line
	3600 2350 3600 2400
Wire Wire Line
	3900 2400 3900 2350
Wire Wire Line
	3750 1850 3750 2000
Connection ~ 3750 1850
Wire Wire Line
	3750 1850 4100 1850
Connection ~ 3750 2000
Wire Wire Line
	3750 2000 3900 2000
Wire Wire Line
	3600 2400 3750 2400
Wire Wire Line
	2150 2550 3750 2550
Wire Wire Line
	3750 2550 3750 2400
Connection ~ 3750 2550
Wire Wire Line
	3750 2550 5300 2550
Connection ~ 3750 2400
Wire Wire Line
	3750 2400 3900 2400
Wire Wire Line
	5050 1850 5300 1850
Wire Wire Line
	5300 1850 5300 2000
Wire Wire Line
	5300 2400 5300 2550
Wire Wire Line
	2450 3450 2150 3450
Wire Wire Line
	3400 3450 3750 3450
Wire Wire Line
	2150 3600 2150 3450
Wire Wire Line
	5300 3650 5300 3450
$Comp
L Simulation_SPICE:VSIN Vin
U 1 1 5E7CEDB3
P 2150 3800
F 0 "Vin" H 2300 3800 50  0000 L CNN
F 1 "123,6533 /2,207º V" H 2200 3900 50  0000 L CNN
F 2 "" H 2150 3800 50  0001 C CNN
F 3 "~" H 2150 3800 50  0001 C CNN
F 4 "Y" H 2150 3800 50  0001 L CNN "Spice_Netlist_Enabled"
F 5 "V" H 2150 3800 50  0001 L CNN "Spice_Primitive"
F 6 "sin(0 1 1k)" H 2280 3709 50  0001 L CNN "Spice_Model"
	1    2150 3800
	1    0    0    -1  
$EndComp
$Comp
L Device:R rp_baixa
U 1 1 5E784930
P 3600 3800
F 0 "rp_baixa" H 3700 3850 50  0000 L CNN
F 1 "440,75 Ω" H 3700 3750 50  0000 L CNN
F 2 "" V 3530 3800 50  0001 C CNN
F 3 "~" H 3600 3800 50  0001 C CNN
	1    3600 3800
	-1   0    0    -1  
$EndComp
$Comp
L Device:L Xm_baixa
U 1 1 5E785639
P 3900 3800
F 0 "Xm_baixa" H 3550 3850 50  0000 L CNN
F 1 "141 Ω" H 3600 3750 50  0000 L CNN
F 2 "" H 3900 3800 50  0001 C CNN
F 3 "~" H 3900 3800 50  0001 C CNN
	1    3900 3800
	-1   0    0    -1  
$EndComp
$Comp
L Device:R Zcarga_linha
U 1 1 5E7DEC20
P 5300 3800
F 0 "Zcarga_linha" H 4750 3850 50  0000 L CNN
F 1 "4.6288 + j4.7223 Ω" H 4450 3750 50  0000 L CNN
F 2 "" V 5230 3800 50  0001 C CNN
F 3 "~" H 5300 3800 50  0001 C CNN
	1    5300 3800
	1    0    0    -1  
$EndComp
Wire Wire Line
	2150 4150 2150 4000
Wire Wire Line
	5300 4150 5300 3950
Wire Notes Line
	1400 4400 5700 4400
Wire Notes Line
	1400 3000 1400 4400
Wire Notes Line
	5700 3000 5700 4400
Wire Wire Line
	3600 3650 3600 3600
Wire Wire Line
	3600 3600 3750 3600
Wire Wire Line
	3900 3600 3900 3650
Wire Wire Line
	3750 3600 3750 3450
Connection ~ 3750 3600
Wire Wire Line
	3750 3600 3900 3600
Connection ~ 3750 3450
Wire Wire Line
	3750 3450 4100 3450
Wire Wire Line
	2150 4150 3750 4150
Wire Wire Line
	3600 3950 3600 4000
Wire Wire Line
	3600 4000 3750 4000
Wire Wire Line
	3900 4000 3900 3950
Wire Wire Line
	3750 4000 3750 4150
Connection ~ 3750 4000
Wire Wire Line
	3750 4000 3900 4000
Connection ~ 3750 4150
Wire Wire Line
	3750 4150 5300 4150
$Comp
L Device:L Xd2_baixa
U 1 1 5E87048C
P 9500 3450
F 0 "Xd2_baixa" V 9319 3450 50  0000 C CNN
F 1 "0,2663 Ω" V 9410 3450 50  0000 C CNN
F 2 "" H 9500 3450 50  0001 C CNN
F 3 "~" H 9500 3450 50  0001 C CNN
	1    9500 3450
	0    -1   1    0   
$EndComp
Wire Wire Line
	9900 3450 9650 3450
Wire Wire Line
	9100 3450 9350 3450
$Comp
L Device:R r2_baixa
U 1 1 5E870495
P 8950 3450
F 0 "r2_baixa" V 8743 3450 50  0000 C CNN
F 1 "0,07 Ω" V 8834 3450 50  0000 C CNN
F 2 "" V 8880 3450 50  0001 C CNN
F 3 "~" H 8950 3450 50  0001 C CNN
	1    8950 3450
	0    -1   1    0   
$EndComp
Wire Wire Line
	8250 3450 7900 3450
$Comp
L Device:L Xd1_baixa
U 1 1 5E87049C
P 8400 3450
F 0 "Xd1_baixa" V 8219 3450 50  0000 C CNN
F 1 "0,2663 Ω" V 8310 3450 50  0000 C CNN
F 2 "" H 8400 3450 50  0001 C CNN
F 3 "~" H 8400 3450 50  0001 C CNN
	1    8400 3450
	0    -1   1    0   
$EndComp
$Comp
L Device:R r1_baixa
U 1 1 5E8704A2
P 7750 3450
F 0 "r1_baixa" V 7543 3450 50  0000 C CNN
F 1 "0,07 Ω" V 7634 3450 50  0000 C CNN
F 2 "" V 7680 3450 50  0001 C CNN
F 3 "~" H 7750 3450 50  0001 C CNN
	1    7750 3450
	0    -1   1    0   
$EndComp
Wire Notes Line
	6000 3000 10300 3000
Wire Wire Line
	7600 3450 7150 3450
Wire Wire Line
	6150 3600 6150 3450
Wire Wire Line
	9900 3650 9900 3450
$Comp
L Simulation_SPICE:VSIN Vin_2
U 1 1 5E8704B0
P 6150 3800
F 0 "Vin_2" H 6200 3950 50  0000 L CNN
F 1 "123,4112 /2,2029º V" H 6150 4050 50  0000 L CNN
F 2 "" H 6150 3800 50  0001 C CNN
F 3 "~" H 6150 3800 50  0001 C CNN
F 4 "Y" H 6150 3800 50  0001 L CNN "Spice_Netlist_Enabled"
F 5 "V" H 6150 3800 50  0001 L CNN "Spice_Primitive"
F 6 "sin(0 1 1k)" H 6280 3709 50  0001 L CNN "Spice_Model"
	1    6150 3800
	1    0    0    -1  
$EndComp
$Comp
L Device:R rp_baixa
U 1 1 5E8704B6
P 7000 3800
F 0 "rp_baixa" H 7100 3850 50  0000 L CNN
F 1 "440,75 Ω" H 7100 3750 50  0000 L CNN
F 2 "" V 6930 3800 50  0001 C CNN
F 3 "~" H 7000 3800 50  0001 C CNN
	1    7000 3800
	-1   0    0    -1  
$EndComp
$Comp
L Device:L Xm_baixa
U 1 1 5E8704BC
P 7300 3800
F 0 "Xm_baixa" H 6900 3850 50  0000 L CNN
F 1 "141 Ω" H 7000 3750 50  0000 L CNN
F 2 "" H 7300 3800 50  0001 C CNN
F 3 "~" H 7300 3800 50  0001 C CNN
	1    7300 3800
	-1   0    0    -1  
$EndComp
$Comp
L Device:R Zcarga_linha
U 1 1 5E8704C2
P 9900 3800
F 0 "Zcarga_linha" H 9350 3850 50  0000 L CNN
F 1 "4.6288 + j4.7223 Ω" H 9050 3750 50  0000 L CNN
F 2 "" V 9830 3800 50  0001 C CNN
F 3 "~" H 9900 3800 50  0001 C CNN
	1    9900 3800
	1    0    0    -1  
$EndComp
Wire Wire Line
	6150 4150 6150 4000
Wire Wire Line
	9900 4150 9900 3950
Wire Notes Line
	6000 4400 10300 4400
Wire Notes Line
	6000 3000 6000 4400
Wire Notes Line
	10300 3000 10300 4400
Wire Wire Line
	7000 3650 7000 3600
Wire Wire Line
	7000 3600 7150 3600
Wire Wire Line
	7300 3600 7300 3650
Wire Wire Line
	7150 3600 7150 3450
Connection ~ 7150 3600
Wire Wire Line
	7150 3600 7300 3600
Wire Wire Line
	6150 4150 7150 4150
Wire Wire Line
	7000 3950 7000 4000
Wire Wire Line
	7000 4000 7150 4000
Wire Wire Line
	7300 4000 7300 3950
Wire Wire Line
	7150 4000 7150 4150
Connection ~ 7150 4000
Wire Wire Line
	7150 4000 7300 4000
Connection ~ 7150 3450
Wire Wire Line
	7150 3450 6150 3450
Connection ~ 7150 4150
Wire Wire Line
	8550 3450 8800 3450
Wire Wire Line
	7150 4150 9900 4150
Wire Wire Line
	2200 5750 2700 5750
Wire Wire Line
	4900 5750 4700 5750
$Comp
L Device:L x1'
U 1 1 5E7A8D72
P 5050 5750
F 0 "x1'" V 4869 5750 50  0000 C CNN
F 1 "0,7575 Ω" V 4960 5750 50  0000 C CNN
F 2 "" H 5050 5750 50  0001 C CNN
F 3 "~" H 5050 5750 50  0001 C CNN
	1    5050 5750
	0    -1   1    0   
$EndComp
$Comp
L Device:R r1'
U 1 1 5E7A8D66
P 4550 5750
F 0 "r1'" V 4343 5750 50  0000 C CNN
F 1 "0,3472 Ω" V 4434 5750 50  0000 C CNN
F 2 "" V 4480 5750 50  0001 C CNN
F 3 "~" H 4550 5750 50  0001 C CNN
	1    4550 5750
	0    -1   1    0   
$EndComp
Text Notes 6100 3100 0    50   ~ 0
Circuito Equivalente Completo Refletido a Fluxo Constante (BT)
Wire Notes Line
	6950 4950 6950 7450
Wire Notes Line
	6950 7450 1050 7450
Wire Notes Line
	1050 7450 1050 4950
Wire Notes Line
	1050 4950 6950 4950
$EndSCHEMATC
